-40 944
-40 -24 912
40 -24 912
72 -24 880
56 -24 -72 -80 -8 -32 672
56 -80 8 -80 -32 -56 -24 600
-16 -16 16 -32 -48 -64 -96 -8 632
-16 40 -64 -80 -96 656
72 -72 -72 -64 -72 -96 -56 -16 -40 -64 288
-16 56 -160 -96 -80 128 -80 320
-160 240 -80 -40 -40 -56 -96 224
-72 -16 32 -48 -16 -56 -32 -72 -168 -40 48 -48 -56 -88 88
